^W:\STUDENT\2017-18\ST20123567\CROSSPLATFORMSOCKETS\SRC\BUILD\GOOGLETEST-DOWNLOAD\CMAKEFILES\560C60D22971BF0C0692C09BA8EAFDFA\GOOGLETEST-MKDIR.RULE
W:\STUDENT\2017-18\ST20123567\CROSSPLATFORMSOCKETS\SRC\BUILD\GOOGLETEST-DOWNLOAD\GOOGLETEST-PREFIX\SRC\GOOGLETEST-STAMP\DEBUG\GOOGLETEST-MKDIR
^W:\STUDENT\2017-18\ST20123567\CROSSPLATFORMSOCKETS\SRC\BUILD\GOOGLETEST-DOWNLOAD\CMAKEFILES\560C60D22971BF0C0692C09BA8EAFDFA\GOOGLETEST-DOWNLOAD.RULE
W:\STUDENT\2017-18\ST20123567\CROSSPLATFORMSOCKETS\SRC\BUILD\GOOGLETEST-DOWNLOAD\GOOGLETEST-PREFIX\SRC\GOOGLETEST-STAMP\DEBUG\GOOGLETEST-DOWNLOAD
^W:\STUDENT\2017-18\ST20123567\CROSSPLATFORMSOCKETS\SRC\BUILD\GOOGLETEST-DOWNLOAD\CMAKEFILES\560C60D22971BF0C0692C09BA8EAFDFA\GOOGLETEST-UPDATE.RULE
W:\STUDENT\2017-18\ST20123567\CROSSPLATFORMSOCKETS\SRC\BUILD\GOOGLETEST-DOWNLOAD\GOOGLETEST-PREFIX\SRC\GOOGLETEST-STAMP\DEBUG\GOOGLETEST-UPDATE
^W:\STUDENT\2017-18\ST20123567\CROSSPLATFORMSOCKETS\SRC\BUILD\GOOGLETEST-DOWNLOAD\CMAKEFILES\560C60D22971BF0C0692C09BA8EAFDFA\GOOGLETEST-PATCH.RULE
W:\STUDENT\2017-18\ST20123567\CROSSPLATFORMSOCKETS\SRC\BUILD\GOOGLETEST-DOWNLOAD\GOOGLETEST-PREFIX\SRC\GOOGLETEST-STAMP\DEBUG\GOOGLETEST-PATCH
^W:\STUDENT\2017-18\ST20123567\CROSSPLATFORMSOCKETS\SRC\BUILD\GOOGLETEST-DOWNLOAD\CMAKEFILES\560C60D22971BF0C0692C09BA8EAFDFA\GOOGLETEST-CONFIGURE.RULE
W:\STUDENT\2017-18\ST20123567\CROSSPLATFORMSOCKETS\SRC\BUILD\GOOGLETEST-DOWNLOAD\GOOGLETEST-PREFIX\SRC\GOOGLETEST-STAMP\DEBUG\GOOGLETEST-CONFIGURE
^W:\STUDENT\2017-18\ST20123567\CROSSPLATFORMSOCKETS\SRC\BUILD\GOOGLETEST-DOWNLOAD\CMAKEFILES\560C60D22971BF0C0692C09BA8EAFDFA\GOOGLETEST-BUILD.RULE
W:\STUDENT\2017-18\ST20123567\CROSSPLATFORMSOCKETS\SRC\BUILD\GOOGLETEST-DOWNLOAD\GOOGLETEST-PREFIX\SRC\GOOGLETEST-STAMP\DEBUG\GOOGLETEST-BUILD
^W:\STUDENT\2017-18\ST20123567\CROSSPLATFORMSOCKETS\SRC\BUILD\GOOGLETEST-DOWNLOAD\CMAKEFILES\560C60D22971BF0C0692C09BA8EAFDFA\GOOGLETEST-INSTALL.RULE
W:\STUDENT\2017-18\ST20123567\CROSSPLATFORMSOCKETS\SRC\BUILD\GOOGLETEST-DOWNLOAD\GOOGLETEST-PREFIX\SRC\GOOGLETEST-STAMP\DEBUG\GOOGLETEST-INSTALL
^W:\STUDENT\2017-18\ST20123567\CROSSPLATFORMSOCKETS\SRC\BUILD\GOOGLETEST-DOWNLOAD\CMAKEFILES\560C60D22971BF0C0692C09BA8EAFDFA\GOOGLETEST-TEST.RULE
W:\STUDENT\2017-18\ST20123567\CROSSPLATFORMSOCKETS\SRC\BUILD\GOOGLETEST-DOWNLOAD\GOOGLETEST-PREFIX\SRC\GOOGLETEST-STAMP\DEBUG\GOOGLETEST-TEST
^W:\STUDENT\2017-18\ST20123567\CROSSPLATFORMSOCKETS\SRC\BUILD\GOOGLETEST-DOWNLOAD\CMAKEFILES\87ADC4406D97C7A233A0AFE405146E44\GOOGLETEST-COMPLETE.RULE
W:\STUDENT\2017-18\ST20123567\CROSSPLATFORMSOCKETS\SRC\BUILD\GOOGLETEST-DOWNLOAD\CMAKEFILES\DEBUG\GOOGLETEST-COMPLETE
^W:\STUDENT\2017-18\ST20123567\CROSSPLATFORMSOCKETS\SRC\BUILD\GOOGLETEST-DOWNLOAD\CMAKEFILES\1D2137A97C95733F3E54D8192354698F\GOOGLETEST.RULE
W:\STUDENT\2017-18\ST20123567\CROSSPLATFORMSOCKETS\SRC\BUILD\GOOGLETEST-DOWNLOAD\CMAKEFILES\GOOGLETEST
^W:\STUDENT\2017-18\ST20123567\CROSSPLATFORMSOCKETS\SRC\BUILD\GOOGLETEST-DOWNLOAD\CMAKELISTS.TXT
W:\STUDENT\2017-18\ST20123567\CROSSPLATFORMSOCKETS\SRC\BUILD\GOOGLETEST-DOWNLOAD\CMAKEFILES\GENERATE.STAMP
