^W:\STUDENT\2017-18\ST20123567\CROSSPLATFORMSOCKETS\SRC\BUILD\GOOGLETEST-SRC\GOOGLETEST\CMAKELISTS.TXT
C:\PROGRAM FILES\CMAKE\SHARE\CMAKE-3.16\MODULES\BASICCONFIGVERSION-ANYNEWERVERSION.CMAKE.IN
C:\PROGRAM FILES\CMAKE\SHARE\CMAKE-3.16\MODULES\CMAKEPACKAGECONFIGHELPERS.CMAKE
C:\PROGRAM FILES\CMAKE\SHARE\CMAKE-3.16\MODULES\CHECKCSOURCECOMPILES.CMAKE
C:\PROGRAM FILES\CMAKE\SHARE\CMAKE-3.16\MODULES\CHECKINCLUDEFILE.CMAKE
C:\PROGRAM FILES\CMAKE\SHARE\CMAKE-3.16\MODULES\CHECKLIBRARYEXISTS.CMAKE
C:\PROGRAM FILES\CMAKE\SHARE\CMAKE-3.16\MODULES\FINDPACKAGEHANDLESTANDARDARGS.CMAKE
C:\PROGRAM FILES\CMAKE\SHARE\CMAKE-3.16\MODULES\FINDPACKAGEMESSAGE.CMAKE
C:\PROGRAM FILES\CMAKE\SHARE\CMAKE-3.16\MODULES\FINDPYTHONINTERP.CMAKE
C:\PROGRAM FILES\CMAKE\SHARE\CMAKE-3.16\MODULES\FINDTHREADS.CMAKE
C:\PROGRAM FILES\CMAKE\SHARE\CMAKE-3.16\MODULES\WRITEBASICCONFIGVERSIONFILE.CMAKE
W:\STUDENT\2017-18\ST20123567\CROSSPLATFORMSOCKETS\SRC\BUILD\GOOGLETEST-SRC\GOOGLETEST\CMAKE\CONFIG.CMAKE.IN
W:\STUDENT\2017-18\ST20123567\CROSSPLATFORMSOCKETS\SRC\BUILD\GOOGLETEST-SRC\GOOGLETEST\CMAKE\GTEST.PC.IN
W:\STUDENT\2017-18\ST20123567\CROSSPLATFORMSOCKETS\SRC\BUILD\GOOGLETEST-SRC\GOOGLETEST\CMAKE\GTEST_MAIN.PC.IN
W:\STUDENT\2017-18\ST20123567\CROSSPLATFORMSOCKETS\SRC\BUILD\GOOGLETEST-SRC\GOOGLETEST\CMAKE\INTERNAL_UTILS.CMAKE
